NYX Geospatial App - In-class Exercise 1
…
Before proceeding further, check for duplicates in the dataframe.

group by all columns and check for duplicate rows using filter(n()>1)

duplicate contains all duplicate rows , including original row. Thus there are 13 duplicated rows. The reason for having 13 duplicated rows in origin_data df is because there are 13 duplicated rows in busstop_mpsz df. We should have done the check prior to left join.

duplicate <- origin_data %>%
  group_by_all() %>%
  filter(n()>1) %>%
  ungroup()

duplicate

# A tibble: 26 × 3
   ORIGIN_SZ ORIGIN_BS TRIPS
   <chr>     <chr>     <dbl>
 1 WDSZ07    47201     23998
 2 WDSZ07    47201     23998
 3 QTSZ01    11009     13826
 4 QTSZ01    11009     13826
 5 JWSZ09    22501      9743
 6 JWSZ09    22501      9743
 7 HGSZ03    62251      6652
 8 HGSZ03    62251      6652
 9 CCSZ01    51071      6218
10 CCSZ01    51071      6218
# ℹ 16 more rows
…
There are 55 missing values in its ’ORIGIN_SZ’ field and this could be due to missing bus stop code in the busstop_mpsz df.

==== Unsure whether we have to aggregate the TRIPS by planning sub-zone level ====

Currently, there are many rows per planning sub-zone. Calculate the aggregate sum of the ‘TRIPS’ field by the ‘ORIGIN_SZ’ in the origin_data df since we are plotting passenger trips originating at sub-zone level.

origin_data_sz <- origin_data %>% 
  group_by(ORIGIN_SZ) %>% 
  summarise(TTRIPS = sum(TRIPS)) %>% 
  ungroup()

origin_data_sz

# A tibble: 312 × 2
   ORIGIN_SZ TTRIPS
   <chr>      <dbl>
 1 AMSZ01     95303
 2 AMSZ02    184734
 3 AMSZ03    159714
 4 AMSZ04     90272
 5 AMSZ05     55590
 6 AMSZ06     80269
 7 AMSZ07     18920
 8 AMSZ08     23382
 9 AMSZ09     71036
10 AMSZ10    136516
# ℹ 302 more rows
…
