NYX Geospatial App - In-class Exercise 2
…
HCSA <- wm_idw %>% 
  mutate(local_Gi = local_gstar_perm(
    GDPPC, nb, wt, nsim=99),   # these 3 var are found in wm_idw
    .before=1) %>% 
  unnest(local_Gi)

HCSA

Simple feature collection with 88 features and 16 fields
Geometry type: POLYGON
Dimension:     XY
Bounding box:  xmin: 108.7831 ymin: 24.6342 xmax: 114.2544 ymax: 30.12812
Geodetic CRS:  WGS 84
# A tibble: 88 × 17
   gi_star   e_gi    var_gi p_value   p_sim p_folded_sim skewness kurtosis nb   
     <dbl>  <dbl>     <dbl>   <dbl>   <dbl>        <dbl>    <dbl>    <dbl> <nb> 
 1  0.0416 0.0114   6.41e-6  0.0493 9.61e-1         0.7      0.35    0.875 <int>
 2 -0.333  0.0106   3.84e-6 -0.0941 9.25e-1         1        0.5     0.661 <int>
 3  0.281  0.0126   7.51e-6 -0.151  8.80e-1         0.9      0.45    0.640 <int>
 4  0.411  0.0118   9.22e-6  0.264  7.92e-1         0.6      0.3     0.853 <int>
 5  0.387  0.0115   9.56e-6  0.339  7.34e-1         0.62     0.31    1.07  <int>
 6 -0.368  0.0118   5.91e-6 -0.583  5.60e-1         0.72     0.36    0.594 <int>
 7  3.56   0.0151   7.31e-6  2.61   9.01e-3         0.06     0.03    1.09  <int>
 8  2.52   0.0136   6.14e-6  1.49   1.35e-1         0.2      0.1     1.12  <int>
 9  4.56   0.0144   5.84e-6  3.53   4.17e-4         0.04     0.02    1.23  <int>
10  1.16   0.0104   3.70e-6  1.82   6.86e-2         0.12     0.06    0.416 <int>
# ℹ 78 more rows
# ℹ 8 more variables: wts <list>, NAME_2 <chr>, ID_3 <int>, NAME_3 <chr>,
#   ENGTYPE_3 <chr>, County <chr>, GDPPC <dbl>, geometry <POLYGON [°]>
…
group by Year and using local_gstar_perm() of sfdep package.

use unnest() to unnest gi_star column of the newly created gi_stars data.frame. THe output of this function is grouped and thus we cannot see it unless unnest().

gi_stars df has 1496 rows instead of 88 because we have ten years worth of data

gi_stars <- GDPPC_nb %>% 
  group_by(Year) %>%   # look at a time slice, for all locations
  mutate(gi_star = local_gstar_perm(
  GDPPC, nb, wt)) %>% 
  tidyr::unnest(gi_star)

gi_stars

# A tibble: 1,496 × 13
# Groups:   Year [17]
    Year County    GDPPC nb        wt    gi_star   e_gi  var_gi  p_value   p_sim
   <dbl> <chr>     <dbl> <list>    <lis>   <dbl>  <dbl>   <dbl>    <dbl>   <dbl>
 1  2005 Anxiang    8184 <int [6]> <dbl>   0.398 0.0115 2.69e-6  0.382   7.02e-1
 2  2005 Hanshou    6560 <int [6]> <dbl>  -0.237 0.0109 2.64e-6  0.00199 9.98e-1
 3  2005 Jinshi     9956 <int [5]> <dbl>   1.05  0.0126 3.33e-6  0.507   6.12e-1
 4  2005 Li         8394 <int [5]> <dbl>   0.966 0.0117 3.24e-6  0.920   3.57e-1
 5  2005 Linli      8850 <int [5]> <dbl>   1.05  0.0120 3.23e-6  0.885   3.76e-1
 6  2005 Shimen     9244 <int [6]> <dbl>   0.210 0.0121 2.99e-6 -0.215   8.30e-1
 7  2005 Liuyang   13406 <int [5]> <dbl>   3.91  0.0142 2.52e-6  3.36    7.69e-4
 8  2005 Ningxiang 11687 <int [8]> <dbl>   1.61  0.0127 2.30e-6  0.895   3.71e-1
 9  2005 Wangcheng 14659 <int [7]> <dbl>   3.88  0.0140 2.49e-6  2.73    6.28e-3
10  2005 Anren      7423 <int [9]> <dbl>   1.67  0.0113 2.14e-6  1.87    6.21e-2
# ℹ 1,486 more rows
# ℹ 3 more variables: p_folded_sim <dbl>, skewness <dbl>, kurtosis <dbl>
…
