NYX Geospatial App - Hands-on Exercise 1.2: Choropleth Mapping with R
…
second argument: .funs <- a function fun, a quosure style lambda. The function used in toupper() <- to upper case

There are many ways to achieve the final output

Prof’s book
Alternative

popdata2020 <- popdata2020 %>% 
  mutate_at(.vars= vars(PA, SZ),
            .funs = funs(toupper)) %>% 
  filter(`ECONOMY ACTIVE` >0)

popdata2020

# A tibble: 234 × 7
   PA         SZ                   YOUNG `ECONOMY ACTIVE`  AGED TOTAL DEPENDENCY
   <chr>      <chr>                <dbl>            <dbl> <dbl> <dbl>      <dbl>
 1 ANG MO KIO ANG MO KIO TOWN CEN…  1290             2760   760  4810      0.743
 2 ANG MO KIO CHENG SAN             5640            16460  6050 28150      0.710
 3 ANG MO KIO CHONG BOON            5100            15000  6470 26570      0.771
 4 ANG MO KIO KEBUN BAHRU           4620            13010  5120 22750      0.749
 5 ANG MO KIO SEMBAWANG HILLS       1880             3630  1310  6820      0.879
 6 ANG MO KIO SHANGRI-LA            3330             9050  3610 15990      0.767
 7 ANG MO KIO TAGORE                1940             4480  1530  7950      0.775
 8 ANG MO KIO TOWNSVILLE            4190            11950  5100 21240      0.777
 9 ANG MO KIO YIO CHU KANG EAST     1110             2410   750  4270      0.772
10 ANG MO KIO YIO CHU KANG WEST     5690            13750  4680 24120      0.754
# ℹ 224 more rows
…
