NYX Geospatial App - Hands-on Exercise 1.1: Geospatial Data Wrangling with R
…
Since listings data set is in csv file format, we will use read_csv() of readr package to import listing.csv as shown the code chunk below. The output R object is called listings and it is a tibble data frame.

listings <- read_csv('data/aspatial/listings.csv')
class(listings)

[1] "spec_tbl_df" "tbl_df"      "tbl"         "data.frame" 

After importing the data file into R, it is important for us to examine if the data file has been imported correctly.

The code chunk below shows list() of Base R instead of glimpse() is used to do the job.

list(listings)

[[1]]
# A tibble: 4,161 × 18
       id name      host_id host_name neighbourhood_group neighbourhood latitude
    <dbl> <chr>       <dbl> <chr>     <chr>               <chr>            <dbl>
 1  50646 Pleasant…  227796 Sujatha   Central Region      Bukit Timah       1.33
 2  71609 Ensuite …  367042 Belinda   East Region         Tampines          1.35
 3  71896 B&B  Roo…  367042 Belinda   East Region         Tampines          1.35
 4  71903 Room 2-n…  367042 Belinda   East Region         Tampines          1.35
 5 275344 15 mins … 1439258 Kay       Central Region      Bukit Merah       1.29
 6 289234 Booking …  367042 Belinda   East Region         Tampines          1.34
 7 294281 5 mins w… 1521514 Elizabeth Central Region      Newton            1.31
 8 324945 Cozy Blu… 1439258 Kay       Central Region      Bukit Merah       1.29
 9 330089 Cozy Blu… 1439258 Kay       Central Region      Bukit Merah       1.29
10 330095 10 mins … 1439258 Kay       Central Region      Bukit Merah       1.29
# ℹ 4,151 more rows
# ℹ 11 more variables: longitude <dbl>, room_type <chr>, price <dbl>,
#   minimum_nights <dbl>, number_of_reviews <dbl>, last_review <date>,
#   reviews_per_month <dbl>, calculated_host_listings_count <dbl>,
#   availability_365 <dbl>, number_of_reviews_ltm <dbl>, license <chr>
…
